<?xml version="1.0" encoding="UTF-8"?>
<svg width="124px" height="24px" viewBox="0 0 124 24" version="1.1" xmlns="http://www.w3.org/2000/svg" xmlns:xlink="http://www.w3.org/1999/xlink">
    <title>Group 13</title>
    <g id="Page-1" stroke="none" stroke-width="1" fill="none" fill-rule="evenodd">
        <g id="Appliance-Copy-13" transform="translate(-404.000000, -468.000000)">
            <g id="Group-15" transform="translate(225.000000, 300.000000)">
                <g id="Group-13" transform="translate(179.500000, 168.500000)">
                    <rect id="Rectangle" stroke="#000000" x="0" y="0" width="123" height="23" rx="11.5"></rect>
                    <path d="M18.854,8.52 L18.854,15.5 L17.454,15.5 L17.454,10.63 L15.664,15.5 L14.444,15.5 L12.654,10.65 L12.654,15.5 L11.244,15.5 L11.244,8.52 L12.954,8.52 L15.074,13.77 L17.154,8.52 L18.854,8.52 Z M22.691,9.89 C23.231,9.89 23.715,10.003 24.141,10.23 C24.575,10.457 24.915,10.787 25.161,11.22 C25.408,11.647 25.531,12.15 25.531,12.73 C25.531,13.31 25.408,13.813 25.161,14.24 C24.915,14.667 24.575,14.997 24.141,15.23 C23.715,15.457 23.231,15.57 22.691,15.57 C22.151,15.57 21.665,15.457 21.231,15.23 C20.805,14.997 20.468,14.667 20.221,14.24 C19.975,13.813 19.851,13.31 19.851,12.73 C19.851,12.15 19.975,11.647 20.221,11.22 C20.468,10.787 20.805,10.457 21.231,10.23 C21.665,10.003 22.151,9.89 22.691,9.89 Z M22.691,11.11 C22.298,11.11 21.965,11.25 21.691,11.53 C21.418,11.803 21.281,12.203 21.281,12.73 C21.281,13.257 21.418,13.66 21.691,13.94 C21.965,14.213 22.298,14.35 22.691,14.35 C23.085,14.35 23.418,14.213 23.691,13.94 C23.965,13.66 24.101,13.257 24.101,12.73 C24.101,12.203 23.965,11.803 23.691,11.53 C23.418,11.25 23.085,11.11 22.691,11.11 Z M28.698,9.89 C29.164,9.89 29.561,10 29.888,10.22 C30.221,10.44 30.461,10.737 30.608,11.11 L30.608,8.1 L32.008,8.1 L32.008,15.5 L30.608,15.5 L30.608,14.34 C30.461,14.713 30.221,15.013 29.888,15.24 C29.561,15.46 29.164,15.57 28.698,15.57 C28.231,15.57 27.811,15.457 27.438,15.23 C27.064,15.003 26.771,14.677 26.558,14.25 C26.351,13.817 26.248,13.31 26.248,12.73 C26.248,12.15 26.351,11.647 26.558,11.22 C26.771,10.787 27.064,10.457 27.438,10.23 C27.811,10.003 28.231,9.89 28.698,9.89 Z M29.138,11.12 C28.698,11.12 28.344,11.263 28.078,11.55 C27.811,11.837 27.678,12.23 27.678,12.73 C27.678,13.23 27.811,13.623 28.078,13.91 C28.344,14.19 28.698,14.33 29.138,14.33 C29.564,14.33 29.914,14.187 30.188,13.9 C30.468,13.607 30.608,13.217 30.608,12.73 C30.608,12.237 30.468,11.847 30.188,11.56 C29.914,11.267 29.564,11.12 29.138,11.12 Z M38.496,12.52 C38.496,12.66 38.479,12.82 38.446,13 L34.386,13 C34.406,13.493 34.539,13.857 34.786,14.09 C35.032,14.323 35.339,14.44 35.706,14.44 C36.032,14.44 36.302,14.36 36.516,14.2 C36.736,14.04 36.876,13.823 36.936,13.55 L38.426,13.55 C38.352,13.937 38.196,14.283 37.956,14.59 C37.716,14.897 37.406,15.137 37.026,15.31 C36.652,15.483 36.236,15.57 35.776,15.57 C35.236,15.57 34.756,15.457 34.336,15.23 C33.916,14.997 33.589,14.667 33.356,14.24 C33.122,13.813 33.006,13.31 33.006,12.73 C33.006,12.15 33.122,11.647 33.356,11.22 C33.589,10.787 33.916,10.457 34.336,10.23 C34.756,10.003 35.236,9.89 35.776,9.89 C36.322,9.89 36.799,10.003 37.206,10.23 C37.619,10.457 37.936,10.77 38.156,11.17 C38.382,11.563 38.496,12.013 38.496,12.52 Z M37.076,12.38 C37.096,11.927 36.976,11.583 36.716,11.35 C36.462,11.117 36.149,11 35.776,11 C35.396,11 35.076,11.117 34.816,11.35 C34.556,11.583 34.412,11.927 34.386,12.38 L37.076,12.38 Z M45.974,14.08 L43.144,14.08 L42.644,15.5 L41.154,15.5 L43.754,8.52 L45.364,8.52 L47.954,15.5 L46.464,15.5 L45.974,14.08 Z M45.594,13.01 L44.554,10.03 L43.514,13.01 L45.594,13.01 Z M54.015,9.96 L54.015,15.5 L52.605,15.5 L52.605,14.38 C52.459,14.753 52.215,15.047 51.875,15.26 C51.542,15.467 51.155,15.57 50.715,15.57 C50.075,15.57 49.565,15.36 49.185,14.94 C48.805,14.52 48.615,13.933 48.615,13.18 L48.615,9.96 L50.015,9.96 L50.015,13.02 C50.015,13.46 50.129,13.803 50.355,14.05 C50.582,14.29 50.889,14.41 51.275,14.41 C51.682,14.41 52.005,14.28 52.245,14.02 C52.485,13.76 52.605,13.387 52.605,12.9 L52.605,9.96 L54.015,9.96 Z M58.257,14.29 L58.257,15.5 L57.517,15.5 C56.897,15.5 56.421,15.35 56.087,15.05 C55.761,14.75 55.597,14.25 55.597,13.55 L55.597,11.15 L54.827,11.15 L54.827,9.96 L55.597,9.96 L55.597,8.59 L57.007,8.59 L57.007,9.96 L58.247,9.96 L58.247,11.15 L57.007,11.15 L57.007,13.57 C57.007,13.837 57.061,14.023 57.167,14.13 C57.274,14.237 57.454,14.29 57.707,14.29 L58.257,14.29 Z M61.832,9.89 C62.372,9.89 62.855,10.003 63.282,10.23 C63.715,10.457 64.055,10.787 64.302,11.22 C64.549,11.647 64.672,12.15 64.672,12.73 C64.672,13.31 64.549,13.813 64.302,14.24 C64.055,14.667 63.715,14.997 63.282,15.23 C62.855,15.457 62.372,15.57 61.832,15.57 C61.292,15.57 60.805,15.457 60.372,15.23 C59.945,14.997 59.609,14.667 59.362,14.24 C59.115,13.813 58.992,13.31 58.992,12.73 C58.992,12.15 59.115,11.647 59.362,11.22 C59.609,10.787 59.945,10.457 60.372,10.23 C60.805,10.003 61.292,9.89 61.832,9.89 Z M61.832,11.11 C61.439,11.11 61.105,11.25 60.832,11.53 C60.559,11.803 60.422,12.203 60.422,12.73 C60.422,13.257 60.559,13.66 60.832,13.94 C61.105,14.213 61.439,14.35 61.832,14.35 C62.225,14.35 62.559,14.213 62.832,13.94 C63.105,13.66 63.242,13.257 63.242,12.73 C63.242,12.203 63.105,11.803 62.832,11.53 C62.559,11.25 62.225,11.11 61.832,11.11 Z" id="Shape" fill="#2F2F2F" fill-rule="nonzero"></path>
                    <polygon id="Path" fill="#2F2F2F" points="110.082 14.5 115.172 9.5 104.993 9.5"></polygon>
                </g>
            </g>
        </g>
    </g>
</svg>