<?xml version="1.0" encoding="UTF-8"?>
<svg width="98px" height="22px" viewBox="0 0 98 22" version="1.1" xmlns="http://www.w3.org/2000/svg" xmlns:xlink="http://www.w3.org/1999/xlink">
    <title>Group 14</title>
    <g id="Page-1" stroke="none" stroke-width="1" fill="none" fill-rule="evenodd">
        <g id="Appliance-Copy-13" transform="translate(-430.000000, -501.000000)">
            <g id="Group-15" transform="translate(225.000000, 300.000000)">
                <g id="Group-14" transform="translate(206.000000, 202.000000)">
                    <polygon id="Path" fill="#1C1C1C" fill-rule="nonzero" points="89.532 10.926 86.914 10.926 86.914 13.586 85.01 13.586 85.01 10.926 82.392 10.926 82.392 9.12 85.01 9.12 85.01 6.446 86.914 6.446 86.914 9.12 89.532 9.12"></polygon>
                    <polygon id="Path" fill="#1C1C1C" fill-rule="nonzero" points="12.922 9.19 12.922 10.828 6.972 10.828 6.972 9.19"></polygon>
                    <path d="M40.2,12.824 C43.592,10.403 45.288,8.477 45.288,7.048 C45.288,6.173 44.91,5.736 44.152,5.736 C43.726,5.736 43.411,5.885 43.208,6.184 C43.016,6.483 42.91,6.947 42.888,7.576 L40.216,7.576 C40.28,6.2 40.696,5.165 41.464,4.472 C42.232,3.779 43.203,3.432 44.376,3.432 C45.603,3.432 46.526,3.741 47.144,4.36 C47.774,4.979 48.088,5.784 48.088,6.776 C48.088,7.875 47.667,8.952 46.824,10.008 C45.982,11.053 44.974,11.939 43.8,12.664 L48.264,12.664 L48.264,14.872 L40.2,14.872 L40.2,12.824 Z M57.743,5.816 L52.655,5.816 L52.655,8.104 C52.879,7.848 53.188,7.651 53.583,7.512 C53.988,7.363 54.425,7.288 54.895,7.288 C55.652,7.288 56.287,7.459 56.799,7.8 C57.311,8.131 57.689,8.579 57.935,9.144 C58.18,9.709 58.303,10.333 58.303,11.016 C58.303,12.253 57.956,13.235 57.263,13.96 C56.569,14.675 55.593,15.032 54.335,15.032 C53.481,15.032 52.74,14.883 52.111,14.584 C51.481,14.275 50.996,13.848 50.655,13.304 C50.313,12.76 50.132,12.131 50.111,11.416 L52.783,11.416 C52.836,11.779 52.98,12.077 53.215,12.312 C53.46,12.547 53.791,12.664 54.207,12.664 C54.687,12.664 55.044,12.509 55.279,12.2 C55.524,11.891 55.647,11.48 55.647,10.968 C55.647,10.477 55.519,10.099 55.263,9.832 C55.007,9.565 54.649,9.432 54.191,9.432 C53.839,9.432 53.545,9.512 53.311,9.672 C53.076,9.821 52.916,10.019 52.831,10.264 L50.175,10.264 L50.175,3.416 L57.743,3.416 L57.743,5.816 Z" id="Shape" fill="#000000" fill-rule="nonzero"></path>
                    <circle id="Oval" stroke="#979797" cx="86" cy="10" r="10"></circle>
                    <circle id="Oval" stroke="#979797" cx="10" cy="10" r="10"></circle>
                </g>
            </g>
        </g>
    </g>
</svg>